{
  "profiles": {
    "CustomMiddleware": {
      "commandName": "Project",
      "launchBrowser": true,
      "environmentVariables": {
        "ASPNETCORE_ENVIRONMENT": "Development"
      },
      "applicationUrl": "https://localhost:4915;http://localhost:4916"
    }
  }
}